{
  "SALES_APP_NAME": "Sales Pipeline",
  "LIB_DIR": "D:\\Prod\\WOWDashboard\\Lib",
  "SALES_JSON_FILE": "D:\\Prod\\WOWDashboard\\WOWDashboard_UI\\five_below_dashboard\\js\\data\\sales_cgi_response.json",
  "APP_LOG_PATH": "Logs",
  "APP_LOG_NAME": "salesPipeline.log",
  "APP_LOG_FORMAT": "%(asctime)s - %(name)s: %(levelname)s: %(message)s",
  "APP_LOG_DATE_FORMAT": "%Y-%m-%d %H:%M:%S",
  "SALES_YESTERDAY": 0,
  "SALES_TODAY": 1,
  "SALES_BUBBLE_YESTERDAY": "-yesterday",
  "SALES_BUBBLE_TODAY": "-today",
  "STORE_ISP_BUBBLEID": "store-isp",
  "STORE_ISP_APPLICATION": "STORE ISP",
  "ESC_BUBBLEID": "esc",
  "ESC_APPLICATION": "ESC",
  "APTOS_BUBBLEID": "aptos",
  "APTOS_APPLICATION": "APTOS",
  "APTOS_DB_HOST" : "AptosClusterDB",
  "APTOS_DATABASE" : "USICOAL",
  "APTOS_STORES_OPENED_QUERY": [
      "SELECT COUNT(DISTINCT rt.[STORE_NO]) as store_count FROM [USICOAL].dbo.[RETAIL_TRANSACTION] rt with (nolock) WHERE CONVERT(VARCHAR(10),BEGIN_DATETIME,10) = DATEADD(DD, -1, CONVERT(VARCHAR(10), GETDATE(), 10)) AND rt.[STORE_NO] <> 1999",
      "SELECT COUNT(DISTINCT rt.[STORE_NO]) as store_count FROM [USICOAL].dbo.[RETAIL_TRANSACTION] rt with (nolock) WHERE CONVERT(VARCHAR(10),BEGIN_DATETIME,10) = DATEADD(DD, 0, CONVERT(VARCHAR(10), GETDATE(), 10)) AND rt.[STORE_NO] <> 1999"
  ],
  "APTOS_TOTAL_SALES_AMOUNT_QUERY" : [
      "select cast(Sum(li.EXT_NET_PRICE) as int) as SalesAmount from [USICOAL].dbo.[RETAIL_TRANSACTION] rt with (nolock) inner join [USICOAL].dbo.[SALE_RTRN_LN_ITEM] li on rt.STORE_NO=li.STORE_NO and rt.RTL_TRN_ID=li.RTL_TRN_ID where rt.VOID_FLG=0 and rt.TRAINING_FLG=0 and li.VOID_FLG=0 AND CONVERT(VARCHAR(10),BEGIN_DATETIME,10) = DATEADD(DD, -1, CONVERT(VARCHAR(10), GETDATE(), 10)) and rt.STORE_NO<>1999",
      "select cast(Sum(li.EXT_NET_PRICE) as int) as SalesAmount from [USICOAL].dbo.[RETAIL_TRANSACTION] rt with (nolock) inner join [USICOAL].dbo.[SALE_RTRN_LN_ITEM] li on rt.STORE_NO=li.STORE_NO and rt.RTL_TRN_ID=li.RTL_TRN_ID where rt.VOID_FLG=0 and rt.TRAINING_FLG=0 and li.VOID_FLG=0 AND CONVERT(VARCHAR(10),BEGIN_DATETIME,10) = DATEADD(DD, 0, CONVERT(VARCHAR(10), GETDATE(), 10)) and rt.STORE_NO<>1999"
  ],
  "APTOS_ZERO_SALES_STORES_QUERY" : [
      "SELECT COUNT(DISTINCT rt.[STORE_NO]) as store_count FROM [USICOAL].dbo.[RETAIL_TRANSACTION] rt with (nolock) WHERE rt.RTL_TRN_TYPE_CODE = 'SALE' AND CONVERT(VARCHAR(10),BEGIN_DATETIME,10) = DATEADD(DD, -1, CONVERT(VARCHAR(10), GETDATE(), 10)) AND rt.[STORE_NO] <> 1999 GROUP BY rt.[STORE_NO] HAVING SUM(rt.AMOUNT) = 0",
      "SELECT COUNT(DISTINCT rt.[STORE_NO]) as store_count FROM [USICOAL].dbo.[RETAIL_TRANSACTION] rt with (nolock) WHERE rt.RTL_TRN_TYPE_CODE = 'SALE' AND CONVERT(VARCHAR(10),BEGIN_DATETIME,10) = DATEADD(DD, 0, CONVERT(VARCHAR(10), GETDATE(), 10)) AND rt.[STORE_NO] <> 1999 GROUP BY rt.[STORE_NO] HAVING SUM(rt.AMOUNT) = 0"
  ],
  "APTOS_HIGHEST_SALES_QUERY":[
      "SELECT top 1 rt.STORE_NO, cast(SUM(rt.AMOUNT) as int) FROM [USICOAL].dbo.[RETAIL_TRANSACTION] rt with (nolock) WHERE rt.RTL_TRN_TYPE_CODE = 'SALE' AND CONVERT(VARCHAR(10),BEGIN_DATETIME,10) = DATEADD(DD, -1, CONVERT(VARCHAR(10), GETDATE(), 10)) AND rt.[STORE_NO] <> 1999 GROUP BY rt.STORE_NO order by 2 desc",
      "SELECT top 1 rt.STORE_NO, cast(SUM(rt.AMOUNT) as int) FROM [USICOAL].dbo.[RETAIL_TRANSACTION] rt with (nolock) WHERE rt.RTL_TRN_TYPE_CODE = 'SALE' AND CONVERT(VARCHAR(10),BEGIN_DATETIME,10) = DATEADD(DD, 0, CONVERT(VARCHAR(10), GETDATE(), 10)) AND rt.[STORE_NO] <> 1999 GROUP BY rt.STORE_NO order by 2 desc"
  ],
  "DATAHUB_BUBBLEID": "data-hub",
  "DATAHUB_APPLICATION": "DATA HUB",
  "DATAHUB_DB_HOST": "phsql01",
  "DATAHUB_DATABASE": "FB_PROD_LD",
  "DATAHUB_TOTAL_STORES_QUERY": [
      "select count(distinct LD_STR_ID) from [FB_PROD_LD].dbo.LD_SALESDETAIL where CONVERT(VARCHAR(10),LD_BUS_DT,10) = DATEADD(DD,-1,CONVERT(VARCHAR(10),GETDATE(),10)) and LD_STR_ID != 1999",
      "select count(distinct LD_STR_ID) from [FB_PROD_LD].dbo.LD_SALESDETAIL where CONVERT(VARCHAR(10),LD_BUS_DT,10) = DATEADD(DD,0,CONVERT(VARCHAR(10),GETDATE(),10)) and LD_STR_ID != 1999"
  ],
  "DATAHUB_TOTAL_SALES_QUERY": [
      "SELECT cast(SUM(LD_EXT_PRC) + SUM(LD_PROMO_MD_AMT) + SUM(LD_DISCOUNT_AMT) as int) FROM [FB_PROD_LD].dbo.LD_SALESDETAIL where CONVERT(VARCHAR(10),LD_BUS_DT,10) = DATEADD(DD,-1,CONVERT(VARCHAR(10),GETDATE(),10)) and LD_STR_ID <> 1999",
      "SELECT cast(SUM(LD_EXT_PRC) + SUM(LD_PROMO_MD_AMT) + SUM(LD_DISCOUNT_AMT) as int) FROM [FB_PROD_LD].dbo.LD_SALESDETAIL where CONVERT(VARCHAR(10),LD_BUS_DT,10) = DATEADD(DD,0,CONVERT(VARCHAR(10),GETDATE(),10)) and LD_STR_ID <> 1999"
  ],
  "EDW_BUBBLEID": "edw",
  "EDW_APPLICATION": "EDW",
  "EDW_DB_HOST": "PH00S104",
  "EDW_DATABASE": "QS_PROD_DW",
  "EDW_TOTAL_STORES_QUERY": [
      "SELECT count(distinct a11.Q_STR_ID) FROM [QS_PROD_DW].dbo.Q_QA_SLS_STR_D_V a11 JOIN [QS_PROD_DW].dbo.DW_LOC_STR b ON a11.Q_STR_ID = b.Q_STR_ID WHERE a11.Q_DT_ID = CONVERT(VARCHAR(10), GETDATE() - 1, 23) AND b.Q_STR_SNUM <> 1999",
      "SELECT count(distinct a11.Q_STR_ID) FROM [QS_PROD_DW].dbo.Q_QA_SLS_STR_D_V a11 JOIN [QS_PROD_DW].dbo.DW_LOC_STR b ON a11.Q_STR_ID = b.Q_STR_ID WHERE a11.Q_DT_ID = CONVERT(VARCHAR(10), GETDATE(), 23) AND b.Q_STR_SNUM <> 1999"
  ],
  "EDW_TOTAL_SALES_QUERY": [
      "SELECT cast(SUM(a11.Q_SLS_RDLRS) as int) Sales FROM [QS_PROD_DW].dbo.Q_QA_SLS_STR_D_V a11 JOIN [QS_PROD_DW].dbo.DW_LOC_STR b ON a11.Q_STR_ID = b.Q_STR_ID WHERE a11.Q_DT_ID = CONVERT(VARCHAR(10),GETDATE() - 1,23) AND b.Q_STR_SNUM <> 1999",
      "SELECT cast(SUM(a11.Q_SLS_RDLRS) as int) Sales FROM [QS_PROD_DW].dbo.Q_QA_SLS_STR_D_V a11 JOIN [QS_PROD_DW].dbo.DW_LOC_STR b ON a11.Q_STR_ID = b.Q_STR_ID WHERE a11.Q_DT_ID = CONVERT(VARCHAR(10),GETDATE(),23) AND b.Q_STR_SNUM <> 1999"
  ],
  "DAILY_READS_BUBBLEID": "daily-reads",
  "DAILY_READS_APPLICATION": "DAILY READS",
  "DAILY_READS_TOTAL_STORES_QUERY": [
      "select count(distinct Q_STR_DNUM) from QS_PROD_DW.dbo.FF_DailyReads WHERE Q_DT_DISPLAY = CONVERT(VARCHAR(10),GETDATE() - 1,23) AND Q_STR_DNUM <> 1999",
      "select count(distinct Q_STR_DNUM) from QS_PROD_DW.dbo.FF_DailyReads WHERE Q_DT_DISPLAY = CONVERT(VARCHAR(10),GETDATE(),23) AND Q_STR_DNUM <> 1999"
  ],
  "DAILY_READS_TOTAL_SALES_QUERY": [
      "select cast(sum(SALESTHROUGH2PM) + sum(SALESTHROUGH5PM) + sum(SALESTHROUGH8PM) + sum(SALESTHROUGH10PM) as int) from QS_PROD_DW.dbo.FF_DailyReads WHERE Q_DT_DISPLAY = CONVERT(VARCHAR(10),GETDATE() - 1, 23) AND Q_STR_DNUM <> 1999",
      "select cast(sum(SALESTHROUGH2PM) + sum(SALESTHROUGH5PM) + sum(SALESTHROUGH8PM) + sum(SALESTHROUGH10PM) as int) from QS_PROD_DW.dbo.FF_DailyReads WHERE Q_DT_DISPLAY = CONVERT(VARCHAR(10),GETDATE(), 23) AND Q_STR_DNUM <> 1999"
  ],
  "DAILYREADS_2PMREPORT_STATUS_QUERY": "SELECT TOP(1) st.EXECSTARTTIME, st.EXECFINISHTIME FROM QS_PROD_EM.dbo.stg_is_message_stats st WHERE st.subinstname LIKE 'DailyReads_FF_2pm%' and CONVERT(DATE,st.DAY_ID) = DATEADD(day, -1, CONVERT(date, GETDATE())) ORDER BY 1 DESC",
  "DAILYREADS_5PMREPORT_STATUS_QUERY": "SELECT TOP(1) st.EXECSTARTTIME, st.EXECFINISHTIME FROM QS_PROD_EM.dbo.stg_is_message_stats st WHERE st.subinstname LIKE 'DailyReads_FF_5pm%' and CONVERT(DATE,st.DAY_ID) = DATEADD(day, -1, CONVERT(date, GETDATE())) ORDER BY 1 DESC",
  "DAILYREADS_8PMREPORT_STATUS_QUERY": "SELECT TOP(1) st.EXECSTARTTIME, st.EXECFINISHTIME FROM QS_PROD_EM.dbo.stg_is_message_stats st WHERE st.subinstname LIKE 'DailyReads_FF_8pm%' and CONVERT(DATE,st.DAY_ID) = DATEADD(day, -1, CONVERT(date, GETDATE())) ORDER BY 1 DESC",
  "DAILYREADS_10PMREPORT_STATUS_QUERY": "SELECT TOP(1) st.EXECSTARTTIME, st.EXECFINISHTIME FROM QS_PROD_EM.dbo.stg_is_message_stats st WHERE st.subinstname LIKE 'DailyReads_FF_10pm%' and CONVERT(DATE,st.DAY_ID) = DATEADD(day, -1, CONVERT(date, GETDATE())) ORDER BY 1 DESC"
}
