{
  "ECOM_APP_NAME": "Ecom Pipeline",
  "LIB_DIR": "D:\\Prod\\WOWDashboard\\Lib",
  "ECOM_JSON_FILE": "D:\\Prod\\WOWDashboard\\WOWDashboard_UI\\five_below_dashboard\\js\\data\\ecom_cgi_response.json",
  "APP_LOG_PATH": "Logs",
  "APP_LOG_NAME": "ecomPipeline.log",
  "APP_LOG_FORMAT": "%(asctime)s - %(name)s: %(levelname)s: %(message)s",
  "APP_LOG_DATE_FORMAT": "%Y-%m-%d %H:%M:%S",
  "DC_PREDRICKTOWN": "3",
  "MAGENTO_DEMAND_BUBBLEID": "magento-demand",
  "MAGENTO_DEMAND_APPLICATION": "MAGENTO-DEMAND",
  "MAGENTO_SSH_HOST": "ssh.us-3.magento.cloud",
  "MAGENTO_SSH_PORT": 22,
  "MAGENTO_SSH_USER": "1.ent-bikoicokcqpbq-production-vohbr3y",
  "MAGENTO_PRIVATE_KEY_LOCATION": "D:\\Santhosh\\Magento\\Private key\\open-ssh-key.ppk",
  "MAGENTO_SQL_HOST": "127.0.0.1",
  "MAGENTO_SQL_PORT": 3306,
  "MAGENTO_SQL_USER": "bikoicokcqpbq",
  "MAGENTO_SQL_PASSWORD": "S1wfWB6QeAJ5wHk",
  "MAGENTO_DATABASE": "bikoicokcqpbq",
  "MAGENTO_DEMAND_QUERY": "select cast(convert_tz(b.created_at,'UTC','America/New_York') as date) ord_date, count(increment_id) order_count, count(case when status = 'closed' then 1 else null end) order_closed, count(case when status = 'canceled' then 1 else null end) order_canceled, count(case when status = 'holded' or status = 'pending' then 1 else null end) order_on_hold, count(case when export_success = 'Yes' then 1 else null end) Sent_for_fulfillment, sum(b.grand_total) order_sales_amt from sales_order b where cast(convert_tz(b.created_at,'UTC','America/New_York') as date) >= cast(convert_tz(curdate(),'UTC','America/New_York') as date) group by cast(convert_tz(b.created_at,'UTC','America/New_York') as date)",
  "SCALE_BUBBLEID": "scale",
  "SCALE_APPLICATION": "SCALE",
  "SCALE_DB_HOST": "PT00S022",
  "SCALE_DATABASE": "ILS",
  "SCALE_ECOM_QUERY": "select count(case when cast(order_dropped_date as date) = cast(getdate() as date) then 1 else null end) orders_dropped_to_scale, cast(sum(case when cast(order_dropped_date as date) = cast(getdate() as date) then total_shipped_qty else 0 end) as int) order_units_to_scale, count(case when cast(shipped_date as date) = cast(getdate() as date) then 1 else null end) orders_shipped_from_scale, cast(sum(case when cast(shipped_date as date) = cast(getdate() as date) then total_shipped_qty else 0 end) as int) order_units_from_scale from (select order_id, order_status, shipped_date,order_dropped_date, sum(shipped_qty) total_shipped_qty, count(short_ship_flag) nbr_of_items_shipped, sum( short_ship_flag) nbr_of_items_short_shipped from (SELECT sh.shipment_id order_id, sh.ACTUAL_SHIP_DATE_TIME shipped_date, sh.creation_date_time_stamp order_dropped_date, sd.ITEM, sd.item_desc,sd.total_qty shipped_qty, sds.total_qty short_shipped_qty, (case when sds.item is null then 0 else 1 end) short_ship_flag, (case when sh.LEADING_STS = '900' and sh.trailing_sts = '900' then 'Closed' else 'Open' end) order_status FROM AR_SHIPMENT_DETAIl sd INNER JOIN AR_SHIPMENT_HEADER sh ON sd.INTERNAL_SHIPMENT_NUM=sh.INTERNAL_SHIPMENT_NUM left outer join AR_shipment_detail sds on sd.internal_shipment_num = sds.internal_shipment_num and sd.internal_shipment_line_num = sds.internal_shipment_line_num and sds.status2 = '999' WHERE sh.order_type like 'ecomm%' and (cast(sh.ACTUAL_SHIP_DATE_TIME as date) >= '2019-09-01' or sh.ACTUAL_SHIP_DATE_TIME is null) ) a group by order_id, shipped_date,order_dropped_date,order_status union all select order_id, order_status, shipped_date, order_dropped_date,sum(shipped_qty) total_shipped_qty, count(short_ship_flag) nbr_of_items_shipped, sum( short_ship_flag) nbr_of_items_short_shipped from (SELECT sh.shipment_id order_id, sh.ACTUAL_SHIP_DATE_TIME shipped_date, sh.creation_date_time_stamp order_dropped_date,sd.ITEM, sd.item_desc,sd.total_qty shipped_qty, sds.total_qty short_shipped_qty, (case when sds.item is null then 0 else 1 end) short_ship_flag, (case when sh.LEADING_STS = '900' and sh.trailing_sts = '900' then 'Closed' else 'Open' end) order_status FROM SHIPMENT_DETAIl sd INNER JOIN SHIPMENT_HEADER sh ON sd.INTERNAL_SHIPMENT_NUM=sh.INTERNAL_SHIPMENT_NUM left outer join shipment_detail sds on sd.internal_shipment_num = sds.internal_shipment_num and sd.internal_shipment_line_num = sds.internal_shipment_line_num and sds.status2 = '999' WHERE sh.order_type like 'ecomm%' and (cast(sh.ACTUAL_SHIP_DATE_TIME as date) >= '2019-09-01' or sh.ACTUAL_SHIP_DATE_TIME is null) ) a group by order_id, shipped_date,order_dropped_date,order_status ) b where (cast(order_dropped_date as date) = cast(getdate() as date) or cast(shipped_date as date) = cast(getdate() as date))",
  "AZURE1_BUBBLEID": "azure-dp1",
  "AZURE_APPLICATION": "Azure",
  "AZURE2_BUBBLEID": "azure-dp2",
  "AZURE_APPLICATION": "Azure",
  "MAGENTO_SHIP_BUBBLEID": "magento-ship-confirm",
  "MAGENTO_SHIP_APPLICATION": "MAGENTO-SHIPCONFIRMS",
  "WORLDPAY_BUBBLEID": "worldpay",
  "WORLDPAY_APPLICATION": "WORLDPAY",
  "MAGENTO_SETTLE_BUBBLEID": "magento-settlements",
  "MAGENTO_SETTLE_APPLICATION": "MAGENTO-SETTLEMENTS",
  "IP_BUBBLEID": "ip",
  "IP_APPLICATION": "IP"
}
